…
    ## Warning in strptime(xx, f <- "%Y-%m-%d", tz = "GMT"): unknown timezone
    ## 'zone/tz/2017c.1.0/zoneinfo/America/New_York'

    testdata2$Weekend <- weekdays(testdata2$date)
    testdata2$Weekend <- grepl("S.+",testdata2$Weekend)


    testdata2$date <- as.Date(testdata2$date)
    weekdays1 <- c('Monday', 'Tuesday', 'Wednesday', 'Thursday', 'Friday')
    testdata2$day <- factor((weekdays(testdata2$date) %in% weekdays1), 
                       levels=c(FALSE, TRUE), labels=c('weekend', 'weekday'))
    testdata2

    ## # A tibble: 15,264 x 5
    ##    steps       date interval Weekend     day
    ##  * <int>     <date>    <int>   <lgl>  <fctr>
    ##  1     0 2012-10-02        0   FALSE weekday
    ##  2     0 2012-10-02        5   FALSE weekday
    ##  3     0 2012-10-02       10   FALSE weekday
    ##  4     0 2012-10-02       15   FALSE weekday
    ##  5     0 2012-10-02       20   FALSE weekday
    ##  6     0 2012-10-02       25   FALSE weekday
    ##  7     0 2012-10-02       30   FALSE weekday
    ##  8     0 2012-10-02       35   FALSE weekday
    ##  9     0 2012-10-02       40   FALSE weekday
    ## 10     0 2012-10-02       45   FALSE weekday
    ## # ... with 15,254 more rows
…
